<!-- Generator: Adobe Illustrator 23.0.2, SVG Export Plug-In  -->
<svg version="1.1" xmlns="http://www.w3.org/2000/svg" xmlns:xlink="http://www.w3.org/1999/xlink" x="0px" y="0px"
	 width="509.889px" height="545.516px" viewBox="0 0 509.889 545.516" style="enable-background:new 0 0 509.889 545.516;"
	 xml:space="preserve">
<style type="text/css">
	.st0{fill:#FDB816;}
</style>
<defs>
</defs>
<g>
	<path class="st0" d="M312.518,499.029c-17.528-17.838-27.341-40.186-36.951-62.716c-6.914-16.211-16.692-30.64-29.172-43.113
		c-3.15-3.148-3.747-5.254-0.411-8.866c4.736-5.128,8.108-11.344,11.079-17.69c0.804-1.717,1.419-3.105,3.815-3.119
		c29.402-0.169,55.571,7.487,75.188,30.965c7.444,8.909,12.286,19.258,16.283,30.095c8.502,23.05,16.154,46.471,28.518,67.897
		c8.714,15.099,19.228,28.684,33.425,39.109c4.851,4.839,11.115,7.847,17.478,12.891c-8.342,0.385-15.384,0.71-22.426,1.034
		c-16.217-1.407-32.054-4.494-47.19-10.681c-8.402-4.266-16.774-8.574-24.386-14.208
		C328.843,514.019,320.704,506.498,312.518,499.029z"/>
	<path class="st0" d="M509.889,321.046c-8.809,10.988-19.318,19.795-31.144,27.057c-23.15,14.214-48.521,19.52-75.412,18.842
		c-2.358-0.059-3.608-1.286-4.941-2.793c-5.404-6.111-10.693-12.331-16.264-18.287c-29.437-31.469-65.219-38.957-105.863-27.761
		c-2.558,0.704-5.171,1.393-7.545,2.534c-3.175,1.527-3.904,0.03-4.351-2.685c-0.485-2.948-0.814-6.031-1.966-8.734
		c-2.095-4.919-0.77-8.087,3.267-11.457c18.185-15.179,38.335-25.204,62.586-24.837c14.587,0.22,28.147,4.507,40.995,11.242
		c15.167,7.951,30.263,16.04,45.799,23.265C445.219,321.461,476.427,328.193,509.889,321.046z"/>
	<path class="st0" d="M230.543,1.255c5.126,5.725,8.366,11.447,11.479,17.184c15.566,28.677,19.367,59.03,12.735,90.858
		c-0.593,2.847-1.903,4.555-4.39,6.046c-12.541,7.522-25.814,13.876-37.356,23.009c-24.435,19.335-36.283,44.826-36.96,75.767
		c-0.164,7.507,0.086,15.003,1.342,22.398c0.493,2.902-0.389,3.519-2.962,3.382c-2.491-0.133-5.185-0.617-7.457,0.104
		c-6.019,1.91-8.487-1.171-11.021-5.959c-12.782-24.142-17.523-49.013-7.833-75.429c4.907-13.376,13.687-24.211,22.755-34.91
		c13.662-16.121,27.458-32.143,38.641-50.196c13.081-21.118,20.338-43.941,20.828-68.84C230.359,3.905,230.431,3.142,230.543,1.255z
		"/>
	<path class="st0" d="M486.816,209.81c-6.399,16.143-15.474,30.445-27.334,43.02c-14.344,15.209-31.725,25.647-51.143,33.018
		c-2.863,1.087-4.965,0.464-7.476-0.797c-13.656-6.857-26.631-15.165-41.149-20.199c-36.568-12.679-69.02-3.736-98.641,19.293
		c-6.246,4.856-5.529,4.367-10.697-1.474c-5.568-6.295-4.161-11.057-0.192-17.321c14.875-23.477,34.448-40.014,62.762-44.097
		c13.326-1.922,26.537-0.091,39.754,1.875c22.712,3.378,45.416,6.763,68.538,5.843c22.264-0.886,42.845-7.09,62.128-18.028
		C484.314,210.405,485.151,209.413,486.816,209.81z"/>
	<path class="st0" d="M340.901,41.505c10.577,36.797,6.942,71.809-12.261,105.139c-2.431,4.22-5.224,6.346-10.139,7.308
		c-13.828,2.707-27.894,4.392-41.352,8.851c-33.109,10.97-53.407,34.215-63.892,66.791c-1.573,4.888-2.784,9.909-3.861,14.933
		c-0.498,2.324-1.46,2.685-3.417,1.908c-1.697-0.674-3.387-1.715-5.136-1.846c-7.758-0.58-9.664-5.518-10.434-12.276
		c-3.176-27.896,1.772-53.339,21.59-74.494c9.351-9.982,21.154-16.539,32.843-23.274c17.298-9.966,34.602-19.932,50.393-32.268
		c19.861-15.515,34.535-34.891,43.768-58.363C339.354,43.029,339.343,41.879,340.901,41.505z"/>
	<path class="st0" d="M115.807,0c28.29,19.371,46.991,44.131,55.355,76.305c1.544,5.939,2.263,12.089,3.668,18.07
		c0.569,2.421-0.615,3.762-1.893,5.287c-6.196,7.397-12.377,14.808-18.591,22.189c-28.975,34.417-32.177,71.955-13.66,112.163
		c1.435,3.117,5.002,6.469,3.882,9.158c-0.884,2.123-6.008,2.154-8.747,3.901c-4.852,3.095-8.122,1.653-12.012-1.967
		c-16.529-15.38-28.76-33.13-32.055-55.985c-2.237-15.517,0.38-30.457,5.861-45.027c7.835-20.826,16.144-41.491,21.565-63.147
		c6.542-26.132,6.074-52.029-2.393-77.69C116.587,2.65,116.418,2.033,115.807,0z"/>
	<path class="st0" d="M428.939,114.299c-1.858,32.591-13.269,60.946-35.686,84.727c-13.356,14.169-13.645,14.24-33.075,11.102
		c-17.758-2.868-35.57-5.606-53.593-1.963c-27.284,5.514-47.643,21.134-63.443,43.421c-0.289,0.407-0.535,0.847-0.846,1.234
		c-2.789,3.469-3.955,9.855-7.634,10.351c-3.05,0.411-6.712-4.76-10.33-7.108c-2.06-1.337-2.442-2.847-2.106-5.005
		c6.04-38.838,27.915-69.8,71.923-78.339c22.837-4.431,45.854-8.069,68.108-15.124c24.989-7.923,46.488-21.251,63.7-41.206
		c0.646-0.749,1.402-1.405,2.128-2.081C428.168,114.231,428.389,114.299,428.939,114.299z"/>
	<path class="st0" d="M493.18,442.046c-25.475,13.33-51.557,18.631-79.314,15.241c-9.617-1.175-18.875-3.775-28.102-6.633
		c-3.208-0.994-4.874-2.797-6.095-5.793c-4.638-11.382-9.116-22.854-14.341-33.969c-15.973-33.976-43.119-52.58-80.119-57.36
		c-5.97-0.771-11.949-1.085-17.93-0.881c-3.023,0.103-3.386-1.065-2.783-3.483c0.281-1.126,0.736-2.325,0.591-3.422
		c-1.118-8.436,3.783-11.101,10.94-13.369c23.418-7.422,46.382-8.16,69.007,2.511c14.829,6.995,25.669,18.689,36.226,30.798
		c15.205,17.44,30.427,34.895,48.914,49.082c17.466,13.403,36.955,22.245,58.651,26.157
		C489.961,441.131,491.069,441.498,493.18,442.046z"/>
	<path class="st0" d="M79.203,255.269c-14.109-9.052-25.917-20.201-33.28-35.613c-6.383-13.361-8.481-27.496-8.764-42.128
		c-0.453-23.45-0.68-46.924-4.899-70.125C28.161,84.866,19.146,64.59,4.797,46.707c-1.444-1.8-2.863-3.62-4.797-6.068
		c30.899,6.611,56.201,21.075,76.016,44.828c4.698,5.632,8.696,11.766,12.593,17.974c1.342,2.139,1.584,3.99,0.851,6.505
		c-3.951,13.554-9.095,26.748-12.302,40.521c-7.627,32.753,0.508,61.527,22.035,86.893c5.079,5.985,10.719,11.411,16.91,16.219
		c2.002,1.555,2.252,2.559,0.144,4.056c-1.078,0.766-2.221,1.609-2.94,2.682c-4.603,6.862-10.362,6.777-16.92,3.149
		c-1.566-0.866-3.401-1.246-5.113-1.849C87.249,259.502,83.226,257.385,79.203,255.269z"/>
</g>
</svg>